[
    {
        "id":1,
        "restaurantName":"Bronco",
        "address":"39 Rue des Petites Écuries, 75010 Paris",
        "lat":48.8737815,
        "long":2.3501649,
        "ratings":[
            {
                "stars":4,
                "comment":"Un excellent restaurant, j'y reviendrai ! Par contre il vaut mieux aimer la viande."
            },
            {
                "stars":5,
                "comment":"Tout simplement mon restaurant préféré !"
            }
        ]
    },
    {
        "id":2,
        "restaurantName":"Babalou",
        "address":"4 Rue Lamarck, 75018 Paris",
        "lat":48.8865035,
        "long":2.3442197,
        "ratings":[
            {
                "stars":5,
                "comment":"Une minuscule pizzeria délicieuse cachée juste à côté du Sacré choeur !"
            },
            {
                "stars":3,
                "comment":"J'ai trouvé ça correct, sans plus"
            }
        ]
    }, {
        "id":3,
        "restaurantName":"3 Brasseurs Lieusaint",
        "address":"Place Ouest, 63 Centre Commercial Carre, 77127 Lieusaint",
        "lat": 48.61547944515104,
        "long":2.546759998186489,
        "ratings":[
            {
                "stars":5,
                "comment":"Très belle sélection de bières maison ! tout simplement savoureuses. Endroit très sympa en famille ou entre amis.Jamais déçue de la qualité personnel professionnel ! Je recommande Visité en août 2021"
            },
            {
                "stars":4,
                "comment":"Mon restaurant préféré sans aucun doute"
            }
        ]
    }, {
        "id":4,
        "restaurantName":"La Fantasia",
        "address":"70 Av. de Fontainebleau, 77310 Pringy",
        "lat":48.52561310157385,
        "long":2.557684256066485,
        "ratings":[
            {
                "stars":5,
                "comment":"Superbe ambiance, belle endroit très bon service, la qualité des produits au top ,je recommande.Visité en février"
            },
            {
                "stars":4,
                "comment":"Excellent couscous. Le poulet bien grillé,  beaucoup de goût,  savoureux  . Super bon les légumes et le bouillon  .  La semoule  bien fine  ..... un délice pour l ensemble,  je recommande ce lieu.  Le personnel  très professionnel,  fort sympathique Visité en novembre 2021"
            }
        ]
    }
]